%YAML 1.1
%TAG !u! tag:unity3d.com,2011:
--- !u!162 &1
EditorUserSettings:
  m_ObjectHideFlags: 0
  serializedVersion: 4
  m_ConfigSettings:
    RecentlyUsedSceneGuid-0:
      value: 01545507570c0f5d0f585e71167b0744144e4b2c7d7f75682b711964e1e6663c
      flags: 0
    RecentlyUsedSceneGuid-1:
      value: 5b570d5506000b5f54080e77417b084442164c282d797165297e4d60e4b9303c
      flags: 0
    RecentlyUsedSceneGuid-2:
      value: 0154525250565c5a5d085f214377064441151e7c7f7a7f687e704965b0b3326d
      flags: 0
    RecentlyUsedSceneGuid-3:
      value: 5009555e00535e02080d5d2448720f441416407c2e7b246278704e35e1b7613d
      flags: 0
    RecentlyUsedSceneGuid-4:
      value: 520000025c01080d0e08547341720c444f151d28287120682e7b4865e3b56239
      flags: 0
    RecentlyUsedSceneGuid-5:
      value: 5a5757560101590a5d0c0e24427b5d44434e4c7a7b7a23677f2b4565b7b5353a
      flags: 0
    vcSharedLogLevel:
      value: 0d5e400f0650
      flags: 0
  m_VCAutomaticAdd: 1
  m_VCDebugCom: 0
  m_VCDebugCmd: 0
  m_VCDebugOut: 0
  m_SemanticMergeMode: 2
  m_DesiredImportWorkerCount: 1
  m_StandbyImportWorkerCount: 1
  m_IdleImportWorkerShutdownDelay: 60000
  m_VCShowFailedCheckout: 1
  m_VCOverwriteFailedCheckoutAssets: 1
  m_VCProjectOverlayIcons: 1
  m_VCHierarchyOverlayIcons: 1
  m_VCOtherOverlayIcons: 1
  m_VCAllowAsyncUpdate: 1
  m_ArtifactGarbageCollection: 1
